#
Title = Boron

# mode
CalculationMode = ae + pp + ip + pp_test

#Units
Units = 3 

#
Verbose = 40

# The charge felt by the valence electrons after you have taken into account the number of shielding electrons that surround the nucleus.
NuclearCharge = 5

#SpinMode = 2

# Orbitals
%Orbitals
"He"
 2 | 0 | 1 | 1
 2 | 1 | 1 | 0
 3 | 2 | 0 | 0
%

%PPComponents
 2 | 0 | 1.60 | tm
 2 | 1 | 1.60 | tm
 3 | 2 | 1.60 | tm
%

# output: psf
PPOutputFileFormat = siesta

#
LLocal = 1

#
XCFunctional = mgga_x_m06_2x + mgga_c_m06_2x

# Tests
PPTests = ld + dm + ip_test
PPTestSCF = yes


## EOF ##
