#
Title = Nitrogen

# mode
CalculationMode = ae + pp

#
Verbose = 40

# The charge felt by the valence electrons after you have taken into account the number of shielding electrons that surround the nucleus.
NuclearCharge = 7

#SpinMode = 2

# Orbitals
%Orbitals
"He"
 2 | 0 | 1 | 1
 2 | 1 | 3 | 0
 3 | 2 | 0 | 0
%

%PPComponents
 2 | 0 | 1.25 | tm
 2 | 1 | 1.25 | tm
 3 | 2 | 1.25 | tm
%

# output: psf
PPOutputFileFormat = siesta

#
LLocal = 1

#
XCFunctional = gga_x_sogga11_x + gga_c_sogga11_x
#XCFunctional = 426

## EOF ##
