#
Title = Nitrogen
# eV
Units = 3

# mode
CalculationMode = ae + pp

#
WaveEquation = scalar_rel

#
Verbose = 40

# The charge felt by the valence electrons after you have taken into account the number of shielding electrons that surround the nucleus.
NuclearCharge = 7

#SpinMode = 2

# Orbitals
%Orbitals
"He"
 2 | 0 | 1 | 1
 2 | 1 | 3 | 0
 3 | 2 | 0 | 0
%

%PPComponents
 2 | 0 | 1.25 | tm
 2 | 1 | 1.25 | tm
 3 | 2 | 1.25 | tm
%

# output: psf
PPOutputFileFormat = siesta

#
LLocal = 1

#
XCFunctional = mgga_x_m06_2x + mgga_c_m06_2x

## EOF ##
