#
Title = Hafnium

# mode
CalculationMode = ae + pp

#
Verbose = 40

# The charge felt by the valence electrons after you have taken into account the number of shielding electrons that surround the nucleus.
NuclearCharge = 72

#SpinMode = 2

# Orbitals
%Orbitals
"Xe"
  4 | 3 | 14
  5 | 2 | 2.00
  6 | 0 | 2.00
  5 | 3 | 0.00
%


%PPComponents
 2 | 0 | 2.55 | tm
 2 | 1 | 2.55 | tm
 3 | 2 | 2.55 | tm
%

# output: psf
PPOutputFileFormat = siesta

#
#LLocal = 1

#
XCFunctional = mgga_x_m06_2x + mgga_c_m06_2x

## EOF ##
